{
  "project_info": {
    "project_number": "854032842216",
    "project_id": "personaltrainer-ff5f8",
    "storage_bucket": "personaltrainer-ff5f8.appspot.com"
  },
  "client": [
    {
      "client_info": {
        "mobilesdk_app_id": "1:854032842216:android:5e3906e8b0e4435c66785d",
        "android_client_info": {
          "package_name": "com.enAct.personal.trainer"
        }
      },
      "oauth_client": [
        {
          "client_id": "854032842216-rapb78rt0pffqgqditfa0ifal3abg0hv.apps.googleusercontent.com",
          "client_type": 3
        }
      ],
      "api_key": [
        {
          "current_key": "AIzaSyA6aTLr9M6yfm0fDJY4f6rYAvMZrBcQfTE"
        }
      ],
      "services": {
        "appinvite_service": {
          "other_platform_oauth_client": [
            {
              "client_id": "854032842216-rapb78rt0pffqgqditfa0ifal3abg0hv.apps.googleusercontent.com",
              "client_type": 3
            },
            {
              "client_id": "854032842216-7orp8ikmki87vop4p5jnp7mafifkj2da.apps.googleusercontent.com",
              "client_type": 2,
              "ios_info": {
                "bundle_id": "com.enAct.personal.client"
              }
            }
          ]
        }
      }
    }
  ],
  "configuration_version": "1"
}